{
  "key":"group_55a7193b10b9d",
  "title":"Email Settings",
  "fields":[
    {
      "key":"field_55a7195bf14fd",
      "label":"\"From\" Name",
      "name":"from_name",
      "type":"text",
      "instructions":"Leave empty if using default website name.",
      "required":0,
      "conditional_logic":0,
      "wrapper":{
        "width":"",
        "class":"",
        "id":""
      },
      "default_value":"",
      "placeholder":"",
      "prepend":"",
      "append":"",
      "maxlength":"",
      "readonly":0,
      "disabled":0
    },
    {
      "key":"field_55a71a2ef14fe",
      "label":"\"From\" Email",
      "name":"from_email",
      "type":"email",
      "instructions":"Default value if empty is admin email found in settings",
      "required":0,
      "conditional_logic":0,
      "wrapper":{
        "width":"",
        "class":"",
        "id":""
      },
      "default_value":"",
      "placeholder":"",
      "prepend":"",
      "append":""
    },
    {
      "key":"field_55a71eca9245f",
      "label":"Subject",
      "name":"subject",
      "type":"text",
      "instructions":"",
      "required":1,
      "conditional_logic":0,
      "wrapper":{
        "width":"",
        "class":"",
        "id":""
      },
      "default_value":"M.I.C.E Con User Approved",
      "placeholder":"",
      "prepend":"",
      "append":"",
      "maxlength":"",
      "readonly":0,
      "disabled":0
    },
    {
      "key":"field_55a71a79f14ff",
      "label":"User Approved Message",
      "name":"user_approved_message",
      "type":"wysiwyg",
      "instructions":"",
      "required":0,
      "conditional_logic":0,
      "wrapper":{
        "width":"",
        "class":"",
        "id":""
      },
      "default_value":"",
      "tabs":"all",
      "toolbar":"full",
      "media_upload":1
    }
  ],
  "location":[
    [
      {
        "param":"options_page",
        "operator":"==",
        "value":"acf-options-email-settings"
      }
    ]
  ],
  "menu_order":0,
  "position":"normal",
  "style":"seamless",
  "label_placement":"top",
  "instruction_placement":"label",
  "hide_on_screen":"",
  "modified":1437015846
}