{
    "key": "group_559a1f8ee20a2",
    "title": "Payment Details",
    "fields": [
        {
            "key": "field_559a20035f7b7",
            "label": "",
            "name": "",
            "type": "message",
            "instructions": "",
            "required": 0,
            "conditional_logic": 0,
            "wrapper": {
                "width": "",
                "class": "col-xs-12 acf-hidden frontend-visible",
                "id": ""
            },
            "message": "<legend>Payment Details<\/legend>",
            "esc_html": 0
        },
        {
            "key": "field_55c015bdd188b",
            "label": "Payment Date",
            "name": "payment_date",
            "type": "date_picker",
            "instructions": "",
            "required": 0,
            "conditional_logic": 0,
            "wrapper": {
                "width": 50,
                "class": "col-xs-6 acf-hidden backend-visible",
                "id": ""
            },
            "display_format": "F j, Y",
            "return_format": "F j, Y",
            "first_day": 1
        },
        {
            "key": "field_559a20205f7b8",
            "label": "Payment Method",
            "name": "payment_method",
            "type": "select",
            "instructions": "",
            "required": 1,
            "conditional_logic": 0,
            "wrapper": {
                "width": "50%",
                "class": "col-xs-12",
                "id": ""
            },
            "choices": {
                "0": "Select",
                "Personal Direct Payment": "Personal Direct Payment",
                "Bank Deposit": "Bank Deposit",
                "Others": "Others",
                "Paid": "Paid",
                "Unpaid": "Unpaid"
            },
            "default_value": [
                
            ],
            "allow_null": 0,
            "multiple": 0,
            "ui": 0,
            "ajax": 0,
            "placeholder": "",
            "disabled": 0,
            "readonly": 0
        },
        {
            "key": "field_559a20695f7b9",
            "label": "Personal Direct Payment",
            "name": "",
            "type": "message",
            "instructions": "",
            "required": 0,
            "conditional_logic": [
                [
                    {
                        "field": "field_559a20205f7b8",
                        "operator": "==",
                        "value": "Personal Direct Payment"
                    }
                ]
            ],
            "wrapper": {
                "width": "",
                "class": "col-xs-12 acf-hidden",
                "id": ""
            },
            "message": "<p>We accept cash and cheque payments at the MICECON Secretariat office (c\/o Tourism Promotions Board), at this address: 4F Legaspi Towers 300, Roxas Boulevard, Manila. Kindly note that cheque payments should be made payable to TOURISM PROMOTIONS BOARD.<\/p>\r\n<p><strong>Note: registration fees are NET of taxes<\/strong><\/p>",
            "esc_html": 0
        },
        {
            "key": "field_559a21435f7bb",
            "label": "Bank Deposit",
            "name": "",
            "type": "message",
            "instructions": "",
            "required": 0,
            "conditional_logic": [
                [
                    {
                        "field": "field_559a20205f7b8",
                        "operator": "==",
                        "value": "Bank Deposit"
                    }
                ]
            ],
            "wrapper": {
                "width": "",
                "class": "col-xs-12 acf-hidden",
                "id": ""
            },
            "message": "<div class=\"table-responsive\">\r\n\t<table class=\"table table-bordered\">\r\n\t\t<tbody>\r\n\t\t\t<tr>\r\n\t\t\t\t<td>Account Name<\/td>\r\n\t\t\t\t<td>TOURISM PROMOTIONS BOARD<\/td>\r\n\t\t\t<\/tr>\r\n\t\t\t<tr>\r\n\t\t\t\t<td>Account Numbers<\/td>\r\n\t\t\t\t<td>1772-1034-13 (Peso Account ) \/ 1774-0105-52 (Dollar Account)<\/td>\r\n\t\t\t<\/tr>\r\n\t\t\t<tr>\r\n\t\t\t\t<td>Swift Code<\/td>\r\n\t\t\t\t<td>TLBPPHMMXXX<\/td>\r\n\t\t\t<\/tr>\r\n\t\t\t<tr>\r\n\t\t\t\t<td>Bank Name<\/td>\r\n\t\t\t\t<td>\r\n\t\t\t\t\tLAND BANK OF THE PHILIPPINES<br>\r\n\t\t\t\t\tBangko Sentral ng Pilipinas,Podium Level, Department of Finance Bldg.,<br>\r\n\t\t\t\t\tBSP Complex, Roxas Boulevard, Malate, Manila<br>\r\n\t\t\t\t<\/td>\r\n\t\t\t<\/tr>\r\n\t\t<\/tbody>\r\n\t<\/table>\r\n<\/div>\r\n<p>Kindly FAX or EMAIL the deposit slip (must be readable) to the MICECON 2014 Secretariat at +632 521-56165 or email at cit@dotpcvc.gov.ph cc: miceregn2014@yahoo.com.  Please indicate in your deposit slip the following: company name,  name of the delegate\/s and Landbank branch where the deposit was made.<\/p>\r\n<p><strong>Note: registration fees are NET of taxes<\/strong><\/p>",
            "esc_html": 0
        },
        {
            "key": "field_55c01629d188c",
            "label": "Amount",
            "name": "amount",
            "type": "text",
            "instructions": "",
            "required": 0,
            "conditional_logic": 0,
            "wrapper": {
                "width": 50,
                "class": "col-xs-6 acf-hidden backend-visible",
                "id": ""
            },
            "default_value": "",
            "placeholder": "",
            "prepend": "",
            "append": "",
            "maxlength": "",
            "readonly": 0,
            "disabled": 0
        },
        {
            "key": "field_55c01648d188d",
            "label": "OR #",
            "name": "or_#",
            "type": "text",
            "instructions": "",
            "required": 0,
            "conditional_logic": 0,
            "wrapper": {
                "width": 50,
                "class": "col-xs-6 acf-hidden backend-visible",
                "id": ""
            },
            "default_value": "",
            "placeholder": "",
            "prepend": "",
            "append": "",
            "maxlength": "",
            "readonly": 0,
            "disabled": 0
        },
        {
            "key": "field_55c0165bd188e",
            "label": "Remarks",
            "name": "remarks",
            "type": "textarea",
            "instructions": "",
            "required": 0,
            "conditional_logic": 0,
            "wrapper": {
                "width": "",
                "class": "acf-hidden backend-visible",
                "id": ""
            },
            "default_value": "",
            "placeholder": "",
            "maxlength": "",
            "rows": "",
            "new_lines": "wpautop",
            "readonly": 0,
            "disabled": 0
        }
    ],
    "location": [
        [
            {
                "param": "post_type",
                "operator": "==",
                "value": "users"
            }
        ]
    ],
    "menu_order": 0,
    "position": "side",
    "style": "default",
    "label_placement": "top",
    "instruction_placement": "label",
    "hide_on_screen": "",
    "modified": 1438652978
}